module gitlab.com/tedwexler/inception

go 1.17

require (
	github.com/AlecAivazis/survey/v2 v2.3.2
	github.com/adrg/xdg v0.3.4
	github.com/go-git/go-git/v5 v5.4.2
	github.com/google/go-github/v39 v39.2.0
	github.com/pkg/errors v0.9.1
	golang.org/x/oauth2 v0.0.0-20211005180243-6b3c2da341f1
)

require (
	github.com/davecgh/go-spew v1.1.1 // indirect
	github.com/pmezard/go-difflib v1.0.0 // indirect
	gopkg.in/yaml.v3 v3.0.0-20200313102051-9f266ea9e77c // indirect
)

require (
	github.com/Microsoft/go-winio v0.4.16 // indirect
	github.com/ProtonMail/go-crypto v0.0.0-20210428141323-04723f9f07d7 // indirect
	github.com/acomagu/bufpipe v1.0.3 // indirect
	github.com/emirpasic/gods v1.12.0 // indirect
	github.com/go-git/gcfg v1.5.0 // indirect
	github.com/go-git/go-billy/v5 v5.3.1 // indirect
	github.com/golang/protobuf v1.4.2 // indirect
	github.com/google/go-querystring v1.1.0 // indirect
	github.com/imdario/mergo v0.3.12 // indirect
	github.com/jbenet/go-context v0.0.0-20150711004518-d14ea06fba99 // indirect
	github.com/kballard/go-shellquote v0.0.0-20180428030007-95032a82bc51 // indirect
	github.com/kevinburke/ssh_config v0.0.0-20201106050909-4977a11b4351 // indirect
	github.com/mattn/go-colorable v0.1.2 // indirect
	github.com/mattn/go-isatty v0.0.8 // indirect
	github.com/mgutz/ansi v0.0.0-20170206155736-9520e82c474b // indirect
	github.com/mitchellh/go-homedir v1.1.0 // indirect
	github.com/sergi/go-diff v1.1.0 // indirect
	github.com/stretchr/testify v1.7.0
	github.com/xanzy/ssh-agent v0.3.0 // indirect
	golang.org/x/crypto v0.0.0-20210817164053-32db794688a5 // indirect
	golang.org/x/net v0.0.0-20210326060303-6b1517762897 // indirect
	golang.org/x/sys v0.0.0-20210615035016-665e8c7367d1 // indirect
	golang.org/x/term v0.0.0-20210503060354-a79de5458b56 // indirect
	golang.org/x/text v0.3.3 // indirect
	google.golang.org/appengine v1.6.7 // indirect
	google.golang.org/protobuf v1.25.0 // indirect
	gopkg.in/warnings.v0 v0.1.2 // indirect
)
